{
  "children": [
    {
      "category": "Projectors",
      "code": "CCAX-001487",
      "description": "PROJECTORLOAN03",
      "manufacturer": "Epson",
      "model": "EB-84",
      "name": "PROJECTORLOAN03",
      "serial_number": "MSVFOY0349L",
      "source": "infoream",
      "status": "C",
      "type": "loan"
    },
    {
      "category": "Projectors",
      "code": "CCAX-001218",
      "description": "PROJECTOR095",
      "manufacturer": "Epson",
      "model": "EB-95",
      "name": "PROJECTOR095",
      "serial_number": "P9GK3600411",
      "source": "infoream",
      "status": "C",
      "type": "loan"
    },
    {
      "category": "Projectors",
      "code": "CCAX-000191",
      "description": "PROJECTORLOAN01",
      "manufacturer": "Epson",
      "model": "EMP-83",
      "name": "PROJECTORLOAN01",
      "serial_number": "KM4F820632L",
      "source": "infoream",
      "status": "C",
      "type": "loan"
    },
    {
      "category": "Audio mixer",
      "code": "CCAX-002222",
      "description": "Audio mixer",
      "manufacturer": "Mackie",
      "model": "CR1604",
      "name": "Audio mixer",
      "serial_number": null,
      "source": "infoream",
      "status": "C",
      "type": "loan"
    },
    {
      "category": "Audio mixer",
      "code": "CCAX-000238",
      "description": "Audio mixer - Mackie Blend6",
      "manufacturer": "Tapco",
      "model": "Mackie Blend6",
      "name": "Audio mixer - Mackie Blend6",
      "serial_number": "(21)JB12173",
      "source": "infoream",
      "status": "C",
      "type": "loan"
    },
    {
      "category": "Audio mixer",
      "code": "CCAX-000239",
      "description": "Audio mixer - Mackie Mix60",
      "manufacturer": "Tapco",
      "model": "Mackie Blend6",
      "name": "Audio mixer - Mackie Mix60",
      "serial_number": "(21)RU15829",
      "source": "infoream",
      "status": "C",
      "type": "loan"
    },
    {
      "category": "Monitoring speakers",
      "code": "CCAX-000247",
      "description": "Monitoring speaker",
      "manufacturer": "Montarbo",
      "model": "412-A",
      "name": "Monitoring speaker",
      "serial_number": "108133",
      "source": "infoream",
      "status": "C",
      "type": "loan"
    },
    {
      "category": "Monitoring speakers",
      "code": "CCAX-000244",
      "description": "Monitoring speaker",
      "manufacturer": "Montarbo",
      "model": "412-A",
      "name": "Monitoring speaker",
      "serial_number": "123805",
      "source": "infoream",
      "status": "C",
      "type": "loan"
    },
    {
      "category": "Monitoring speakers",
      "code": "CCAX-000246",
      "description": "Monitoring speaker",
      "manufacturer": "Montarbo",
      "model": "412-A",
      "name": "Monitoring speaker",
      "serial_number": "123807",
      "source": "infoream",
      "status": "C",
      "type": "loan"
    },
    {
      "category": "Monitoring speakers",
      "code": "CCAX-000245",
      "description": "Monitoring speaker",
      "manufacturer": "Montarbo",
      "model": "412-A",
      "name": "Monitoring speaker",
      "serial_number": "123806",
      "source": "infoream",
      "status": "C",
      "type": "loan"
    },
    {
      "category": "Portable projection screen",
      "code": "CCAX-001571",
      "description": "PORTABLE PSC03 (Starello)",
      "manufacturer": null,
      "model": "180x150",
      "name": "PORTABLE PSC03 (Starello)",
      "serial_number": null,
      "source": "infoream",
      "status": "C",
      "type": "loan"
    },
    {
      "category": "Portable projection screen",
      "code": "CCAX-001489",
      "description": "PORTABLE PSC02",
      "manufacturer": null,
      "model": "200x160",
      "name": "PORTABLE PSC02",
      "serial_number": null,
      "source": "infoream",
      "status": "C",
      "type": "loan"
    },
    {
      "category": "Portable projection screen",
      "code": "CCAX-001488",
      "description": "PORTABLE PSC01",
      "manufacturer": null,
      "model": "200x160",
      "name": "PORTABLE PSC01",
      "serial_number": null,
      "source": "infoream",
      "status": "C",
      "type": "loan"
    },
    {
      "category": "55\" LCD screen",
      "code": "CCAX-000331",
      "description": "LCD SCREEN LOAN-01",
      "manufacturer": "SONY",
      "model": "bravia kdl-52v4000",
      "name": "LCD SCREEN LOAN-01",
      "serial_number": "9304713",
      "source": "infoream",
      "status": "C",
      "type": "loan"
    },
    {
      "category": "55\" LCD screen",
      "code": "CCAX-001570",
      "description": "LCD SCREEN LOAN-02",
      "manufacturer": "SONY",
      "model": "BRAVIA KDL-55HX750",
      "name": "LCD SCREEN LOAN-02",
      "serial_number": "5100190",
      "source": "infoream",
      "status": "C",
      "type": "loan"
    },
    {
      "category": "Camera",
      "code": "CCAX-002220",
      "description": "Camescope Sony HDR-XR500VE with tripod",
      "manufacturer": null,
      "model": null,
      "name": "Camescope Sony HDR-XR500VE with tripod",
      "serial_number": null,
      "source": "infoream",
      "status": "C",
      "type": "loan"
    },
    {
      "name": "last_update",
      "type": "datetime",
      "value": "2025-03-09T07:20:00.183532"
    }
  ],
  "name": "loans",
  "type": "list"
}